{
  "data": [
    {
      "bottom": 148,
      "id": 1,
      "left": 2276,
      "right": 2338,
      "text": "Crp.",
      "top": 112
    },
    {
      "bottom": 139,
      "id": 2,
      "left": 2360,
      "right": 2377,
      "text": "2",
      "top": 112
    },
    {
      "bottom": 205,
      "id": 3,
      "left": 85,
      "right": 188,
      "text": "Адрес",
      "top": 169
    },
    {
      "bottom": 200,
      "id": 4,
      "left": 202,
      "right": 293,
      "text": "(иное",
      "top": 170
    },
    {
      "bottom": 196,
      "id": 5,
      "left": 307,
      "right": 465,
      "text": "описавзие",
      "top": 177
    },
    {
      "bottom": 202,
      "id": 6,
      "left": 480,
      "right": 780,
      "text": "местоположения}",
      "top": 173
    },
    {
      "bottom": 274,
      "id": 7,
      "left": 86,
      "right": 184,
      "text": "город",
      "top": 246
    },
    {
      "bottom": 272,
      "id": 8,
      "left": 200,
      "right": 347,
      "text": "Москва,",
      "top": 238
    },
    {
      "bottom": 274,
      "id": 9,
      "left": 360,
      "right": 467,
      "text": "улица",
      "top": 246
    },
    {
      "bottom": 272,
      "id": 10,
      "left": 482,
      "right": 680,
      "text": "Шеногина,",
      "top": 238
    },
    {
      "bottom": 267,
      "id": 11,
      "left": 701,
      "right": 757,
      "text": "дом",
      "top": 246
    },
    {
      "bottom": 272,
      "id": 12,
      "left": 771,
      "right": 799,
      "text": "3,",
      "top": 237
    },
    {
      "bottom": 274,
      "id": 13,
      "left": 812,
      "right": 971,
      "text": "сгроение",
      "top": 246
    },
    {
      "bottom": 265,
      "id": 14,
      "left": 985,
      "right": 1002,
      "text": "2",
      "top": 238
    },
    {
      "bottom": 339,
      "id": 15,
      "left": 79,
      "right": 279,
      "text": "Помешение",
      "top": 309
    },
    {
      "bottom": 337,
      "id": 16,
      "left": 293,
      "right": 331,
      "text": "№",
      "top": 309
    },
    {
      "bottom": 336,
      "id": 17,
      "left": 346,
      "right": 355,
      "text": "Г",
      "top": 309
    },
    {
      "bottom": 336,
      "id": 18,
      "left": 369,
      "right": 434,
      "text": "Тии:",
      "top": 309
    },
    {
      "bottom": 336,
      "id": 19,
      "left": 463,
      "right": 614,
      "text": "Нежилое",
      "top": 309
    },
    {
      "bottom": 406,
      "id": 20,
      "left": 147,
      "right": 353,
      "text": "Свзедениями",
      "top": 376
    },
    {
      "bottom": 403,
      "id": 21,
      "left": 368,
      "right": 386,
      "text": "о",
      "top": 384
    },
    {
      "bottom": 406,
      "id": 22,
      "left": 399,
      "right": 607,
      "text": "соб.подении",
      "top": 384
    },
    {
      "bottom": 412,
      "id": 23,
      "left": 627,
      "right": 817,
      "text": "требований",
      "top": 376
    },
    {
      "bottom": 412,
      "id": 24,
      "left": 833,
      "right": 948,
      "text": "пункта",
      "top": 384
    },
    {
      "bottom": 403,
      "id": 25,
      "left": 961,
      "right": 979,
      "text": "4",
      "top": 376
    },
    {
      "bottom": 403,
      "id": 26,
      "left": 994,
      "right": 1083,
      "text": "части",
      "top": 385
    },
    {
      "bottom": 403,
      "id": 27,
      "left": 1103,
      "right": 1135,
      "text": "17",
      "top": 376
    },
    {
      "bottom": 404,
      "id": 28,
      "left": 1149,
      "right": 1256,
      "text": "статьи",
      "top": 384
    },
    {
      "bottom": 403,
      "id": 29,
      "left": 1271,
      "right": 1302,
      "text": "5]",
      "top": 376
    },
    {
      "bottom": 412,
      "id": 30,
      "left": 1323,
      "right": 1673,
      "text": "Градостроительного",
      "top": 376
    },
    {
      "bottom": 406,
      "id": 31,
      "left": 1687,
      "right": 1817,
      "text": "кодекса",
      "top": 384
    },
    {
      "bottom": 450,
      "id": 32,
      "left": 148,
      "right": 343,
      "text": "Российской",
      "top": 423
    },
    {
      "bottom": 459,
      "id": 33,
      "left": 359,
      "right": 545,
      "text": "Федерации",
      "top": 423
    },
    {
      "bottom": 450,
      "id": 34,
      "left": 562,
      "right": 632,
      "text": "ГБУ",
      "top": 423
    },
    {
      "bottom": 459,
      "id": 35,
      "left": 648,
      "right": 851,
      "text": "МосгорБТИ",
      "top": 423
    },
    {
      "bottom": 450,
      "id": 36,
      "left": 866,
      "right": 902,
      "text": "ve",
      "top": 432
    },
    {
      "bottom": 459,
      "id": 37,
      "left": 915,
      "right": 1115,
      "text": "располагает",
      "top": 431
    },
    {
      "bottom": 456,
      "id": 38,
      "left": 1133,
      "right": 1324,
      "text": "(ком.12.13)",
      "top": 423
    },
    {
      "bottom": 561,
      "id": 39,
      "left": 1536,
      "right": 1690,
      "text": "Площаль",
      "top": 531
    },
    {
      "bottom": 560,
      "id": 40,
      "left": 1703,
      "right": 1898,
      "text": "помещений",
      "top": 531
    },
    {
      "bottom": 608,
      "id": 41,
      "left": 988,
      "right": 1142,
      "text": "Плошаль",
      "top": 578
    },
    {
      "bottom": 607,
      "id": 42,
      "left": 1154,
      "right": 1258,
      "text": "общая.",
      "top": 586
    },
    {
      "bottom": 605,
      "id": 43,
      "left": 1284,
      "right": 1353,
      "text": "кв.м",
      "top": 587
    },
    {
      "bottom": 605,
      "id": 44,
      "left": 1562,
      "right": 1873,
      "text": "вспомогательного",
      "top": 586
    },
    {
      "bottom": 632,
      "id": 45,
      "left": 2144,
      "right": 2354,
      "text": "Примечание",
      "top": 596
    },
    {
      "bottom": 623,
      "id": 46,
      "left": 2278,
      "right": 2284,
      "text": "с",
      "top": 613
    },
    {
      "bottom": 652,
      "id": 47,
      "left": 1459,
      "right": 1709,
      "text": "использования",
      "top": 633
    },
    {
      "bottom": 656,
      "id": 48,
      "left": 1725,
      "right": 1753,
      "text": "(с",
      "top": 626
    },
    {
      "bottom": 656,
      "id": 49,
      "left": 1767,
      "right": 1871,
      "text": "коэф.).",
      "top": 628
    },
    {
      "bottom": 652,
      "id": 50,
      "left": 1894,
      "right": 1974,
      "text": "кв.м",
      "top": 634
    },
    {
      "bottom": 649,
      "id": 51,
      "left": 2023,
      "right": 2071,
      "text": "Вы",
      "top": 622
    },
    {
      "bottom": 673,
      "id": 52,
      "left": 563,
      "right": 839,
      "text": "Характеристики",
      "top": 646
    },
    {
      "bottom": 676,
      "id": 53,
      "left": 110,
      "right": 117,
      "text": "r",
      "top": 669
    },
    {
      "bottom": 673,
      "id": 54,
      "left": 655,
      "right": 664,
      "text": "к",
      "top": 660
    },
    {
      "bottom": 673,
      "id": 55,
      "left": 810,
      "right": 819,
      "text": "^",
      "top": 662
    },
    {
      "bottom": 697,
      "id": 56,
      "left": 118,
      "right": 196,
      "text": "аж",
      "top": 669
    },
    {
      "bottom": 696,
      "id": 57,
      "left": 259,
      "right": 328,
      "text": "№№",
      "top": 669
    },
    {
      "bottom": 696,
      "id": 58,
      "left": 342,
      "right": 457,
      "text": "комнат",
      "top": 677
    },
    {
      "bottom": 682,
      "id": 59,
      "left": 592,
      "right": 709,
      "text": "раке]",
      "top": 655
    },
    {
      "bottom": 696,
      "id": 60,
      "left": 2013,
      "right": 2083,
      "text": "сота",
      "top": 677
    },
    {
      "bottom": 719,
      "id": 61,
      "left": 521,
      "right": 636,
      "text": "комнат",
      "top": 700
    },
    {
      "bottom": 719,
      "id": 62,
      "left": 655,
      "right": 671,
      "text": "и",
      "top": 701
    },
    {
      "bottom": 721,
      "id": 63,
      "left": 687,
      "right": 881,
      "text": "помещений",
      "top": 700
    },
    {
      "bottom": 716,
      "id": 64,
      "left": 1153,
      "right": 1169,
      "text": "в",
      "top": 698
    },
    {
      "bottom": 716,
      "id": 65,
      "left": 1187,
      "right": 1241,
      "text": "том",
      "top": 697
    },
    {
      "bottom": 716,
      "id": 66,
      "left": 1257,
      "right": 1351,
      "text": "числе",
      "top": 697
    },
    {
      "bottom": 716,
      "id": 67,
      "left": 1618,
      "right": 1634,
      "text": "в",
      "top": 698
    },
    {
      "bottom": 716,
      "id": 68,
      "left": 1652,
      "right": 1706,
      "text": "том",
      "top": 697
    },
    {
      "bottom": 716,
      "id": 69,
      "left": 1723,
      "right": 1816,
      "text": "числе",
      "top": 697
    },
    {
      "bottom": 743,
      "id": 70,
      "left": 2028,
      "right": 2043,
      "text": "с",
      "top": 724
    },
    {
      "bottom": 743,
      "id": 71,
      "left": 2048,
      "right": 2067,
      "text": "M",
      "top": 725
    },
    {
      "bottom": 773,
      "id": 72,
      "left": 946,
      "right": 1042,
      "text": "Всего",
      "top": 746
    },
    {
      "bottom": 774,
      "id": 73,
      "left": 2208,
      "right": 2287,
      "text": "Дата",
      "top": 740
    },
    {
      "bottom": 807,
      "id": 74,
      "left": 1096,
      "right": 1213,
      "text": "OCHOBH",
      "top": 788
    },
    {
      "bottom": 807,
      "id": 75,
      "left": 1288,
      "right": 1387,
      "text": "BCHOM",
      "top": 788
    },
    {
      "bottom": 810,
      "id": 76,
      "left": 1457,
      "right": 1574,
      "text": "оджий",
      "top": 788
    },
    {
      "bottom": 807,
      "id": 77,
      "left": 1600,
      "right": 1757,
      "text": "балконов",
      "top": 788
    },
    {
      "bottom": 816,
      "id": 78,
      "left": 1824,
      "right": 1945,
      "text": "прочих",
      "top": 788
    },
    {
      "bottom": 816,
      "id": 79,
      "left": 2130,
      "right": 2363,
      "text": "обследования",
      "top": 794
    },
    {
      "bottom": 901,
      "id": 80,
      "left": 2138,
      "right": 2242,
      "text": "чрежд",
      "top": 873
    },
    {
      "bottom": 915,
      "id": 81,
      "left": 239,
      "right": 277,
      "text": "20",
      "top": 888
    },
    {
      "bottom": 915,
      "id": 82,
      "left": 503,
      "right": 682,
      "text": "разлевалка",
      "top": 896
    },
    {
      "bottom": 928,
      "id": 83,
      "left": 991,
      "right": 1058,
      "text": "24.7",
      "top": 870
    },
    {
      "bottom": 928,
      "id": 84,
      "left": 1356,
      "right": 1424,
      "text": "24.7",
      "top": 870
    },
    {
      "bottom": 915,
      "id": 85,
      "left": 2024,
      "right": 2083,
      "text": "266",
      "top": 888
    },
    {
      "bottom": 901,
      "id": 86,
      "left": 2116,
      "right": 2133,
      "text": "У",
      "top": 874
    },
    {
      "bottom": 924,
      "id": 87,
      "left": 497,
      "right": 663,
      "text": "разисваак",
      "top": 897
    },
    {
      "bottom": 939,
      "id": 88,
      "left": 2116,
      "right": 2315,
      "text": "28.09.2010",
      "top": 912
    },
    {
      "bottom": 952,
      "id": 89,
      "left": 2300,
      "right": 2315,
      "text": "1",
      "top": 894
    },
    {
      "bottom": 1005,
      "id": 90,
      "left": 88,
      "right": 188,
      "text": "Итого",
      "top": 978
    },
    {
      "bottom": 1005,
      "id": 91,
      "left": 201,
      "right": 240,
      "text": "по",
      "top": 986
    },
    {
      "bottom": 1007,
      "id": 92,
      "left": 253,
      "right": 459,
      "text": "помешению",
      "top": 986
    },
    {
      "bottom": 1005,
      "id": 93,
      "left": 975,
      "right": 1059,
      "text": "179.4",
      "top": 978
    },
    {
      "bottom": 1005,
      "id": 94,
      "left": 1174,
      "right": 1242,
      "text": "46,7",
      "top": 978
    },
    {
      "bottom": 1005,
      "id": 95,
      "left": 1341,
      "right": 1424,
      "text": "132,7",
      "top": 978
    },
    {
      "bottom": 1080,
      "id": 96,
      "left": 108,
      "right": 265,
      "text": "Нежилые",
      "top": 1053
    },
    {
      "bottom": 1082,
      "id": 97,
      "left": 280,
      "right": 471,
      "text": "помещения",
      "top": 1061
    },
    {
      "bottom": 1080,
      "id": 98,
      "left": 487,
      "right": 576,
      "text": "всего",
      "top": 1061
    },
    {
      "bottom": 1080,
      "id": 99,
      "left": 975,
      "right": 1059,
      "text": "179.4",
      "top": 1053
    },
    {
      "bottom": 1080,
      "id": 100,
      "left": 1174,
      "right": 1242,
      "text": "46,7",
      "top": 1053
    },
    {
      "bottom": 1080,
      "id": 101,
      "left": 1341,
      "right": 1424,
      "text": "132,7",
      "top": 1053
    },
    {
      "bottom": 1155,
      "id": 102,
      "left": 147,
      "right": 163,
      "text": "в",
      "top": 1137
    },
    {
      "bottom": 1155,
      "id": 103,
      "left": 181,
      "right": 220,
      "text": "т.ч.",
      "top": 1137
    },
    {
      "bottom": 1164,
      "id": 104,
      "left": 245,
      "right": 533,
      "text": "Учрежденческие",
      "top": 1128
    },
    {
      "bottom": 1155,
      "id": 105,
      "left": 975,
      "right": 1059,
      "text": "160.6",
      "top": 1128
    },
    {
      "bottom": 1155,
      "id": 106,
      "left": 1174,
      "right": 1242,
      "text": "27.9",
      "top": 1128
    },
    {
      "bottom": 1155,
      "id": 107,
      "left": 1341,
      "right": 1424,
      "text": "132.7",
      "top": 1128
    },
    {
      "bottom": 1239,
      "id": 108,
      "left": 179,
      "right": 304,
      "text": "Прочие",
      "top": 1203
    },
    {
      "bottom": 1230,
      "id": 109,
      "left": 996,
      "right": 1058,
      "text": "18,8",
      "top": 1203
    },
    {
      "bottom": 1230,
      "id": 110,
      "left": 1179,
      "right": 1242,
      "text": "18,8",
      "top": 1203
    },
    {
      "bottom": 1424,
      "id": 111,
      "left": 79,
      "right": 279,
      "text": "Помешение",
      "top": 1394
    },
    {
      "bottom": 1422,
      "id": 112,
      "left": 293,
      "right": 331,
      "text": "№",
      "top": 1394
    },
    {
      "bottom": 1421,
      "id": 113,
      "left": 346,
      "right": 355,
      "text": "Г",
      "top": 1394
    },
    {
      "bottom": 1421,
      "id": 114,
      "left": 369,
      "right": 434,
      "text": "Тии:",
      "top": 1394
    },
    {
      "bottom": 1421,
      "id": 115,
      "left": 463,
      "right": 614,
      "text": "Нежилое",
      "top": 1394
    },
    {
      "bottom": 1553,
      "id": 116,
      "left": 1536,
      "right": 1690,
      "text": "Площаль",
      "top": 1523
    },
    {
      "bottom": 1552,
      "id": 117,
      "left": 1703,
      "right": 1898,
      "text": "помещений",
      "top": 1523
    },
    {
      "bottom": 1600,
      "id": 118,
      "left": 988,
      "right": 1142,
      "text": "Плошаль",
      "top": 1570
    },
    {
      "bottom": 1599,
      "id": 119,
      "left": 1154,
      "right": 1258,
      "text": "общая.",
      "top": 1578
    },
    {
      "bottom": 1597,
      "id": 120,
      "left": 1284,
      "right": 1353,
      "text": "кв.м",
      "top": 1579
    },
    {
      "bottom": 1597,
      "id": 121,
      "left": 1562,
      "right": 1873,
      "text": "вспомогательного",
      "top": 1578
    },
    {
      "bottom": 1623,
      "id": 122,
      "left": 2144,
      "right": 2354,
      "text": "Примечание",
      "top": 1587
    },
    {
      "bottom": 1614,
      "id": 123,
      "left": 2278,
      "right": 2284,
      "text": "с",
      "top": 1604
    },
    {
      "bottom": 1643,
      "id": 124,
      "left": 1459,
      "right": 1709,
      "text": "использования",
      "top": 1624
    },
    {
      "bottom": 1647,
      "id": 125,
      "left": 1725,
      "right": 1753,
      "text": "(с",
      "top": 1617
    },
    {
      "bottom": 1647,
      "id": 126,
      "left": 1767,
      "right": 1871,
      "text": "коэф.)",
      "top": 1619
    },
    {
      "bottom": 1643,
      "id": 127,
      "left": 1894,
      "right": 1974,
      "text": "кв.м",
      "top": 1625
    },
    {
      "bottom": 1641,
      "id": 128,
      "left": 2023,
      "right": 2071,
      "text": "Вы",
      "top": 1614
    },
    {
      "bottom": 1664,
      "id": 129,
      "left": 563,
      "right": 839,
      "text": "Характеристики",
      "top": 1637
    },
    {
      "bottom": 1668,
      "id": 130,
      "left": 110,
      "right": 117,
      "text": "r",
      "top": 1661
    },
    {
      "bottom": 1664,
      "id": 131,
      "left": 592,
      "right": 664,
      "text": "dpdh",
      "top": 1651
    },
    {
      "bottom": 1664,
      "id": 132,
      "left": 810,
      "right": 819,
      "text": "^",
      "top": 1653
    },
    {
      "bottom": 1689,
      "id": 133,
      "left": 118,
      "right": 196,
      "text": "Jraxk",
      "top": 1661
    },
    {
      "bottom": 1688,
      "id": 134,
      "left": 259,
      "right": 328,
      "text": "№№",
      "top": 1661
    },
    {
      "bottom": 1688,
      "id": 135,
      "left": 342,
      "right": 457,
      "text": "комнат",
      "top": 1669
    },
    {
      "bottom": 1673,
      "id": 136,
      "left": 609,
      "right": 615,
      "text": "]",
      "top": 1646
    },
    {
      "bottom": 1673,
      "id": 137,
      "left": 703,
      "right": 709,
      "text": "1",
      "top": 1646
    },
    {
      "bottom": 1688,
      "id": 138,
      "left": 2013,
      "right": 2083,
      "text": "сота",
      "top": 1669
    },
    {
      "bottom": 1711,
      "id": 139,
      "left": 521,
      "right": 636,
      "text": "комнат",
      "top": 1692
    },
    {
      "bottom": 1711,
      "id": 140,
      "left": 655,
      "right": 671,
      "text": "и",
      "top": 1693
    },
    {
      "bottom": 1713,
      "id": 141,
      "left": 687,
      "right": 881,
      "text": "помещений",
      "top": 1692
    },
    {
      "bottom": 1708,
      "id": 142,
      "left": 1153,
      "right": 1169,
      "text": "в",
      "top": 1690
    },
    {
      "bottom": 1708,
      "id": 143,
      "left": 1187,
      "right": 1241,
      "text": "том",
      "top": 1689
    },
    {
      "bottom": 1708,
      "id": 144,
      "left": 1257,
      "right": 1351,
      "text": "числе",
      "top": 1689
    },
    {
      "bottom": 1708,
      "id": 145,
      "left": 1618,
      "right": 1634,
      "text": "в",
      "top": 1690
    },
    {
      "bottom": 1708,
      "id": 146,
      "left": 1652,
      "right": 1706,
      "text": "том",
      "top": 1689
    },
    {
      "bottom": 1708,
      "id": 147,
      "left": 1723,
      "right": 1816,
      "text": "числе",
      "top": 1689
    },
    {
      "bottom": 1734,
      "id": 148,
      "left": 2028,
      "right": 2067,
      "text": "cu",
      "top": 1715
    },
    {
      "bottom": 1764,
      "id": 149,
      "left": 946,
      "right": 1042,
      "text": "Всего",
      "top": 1737
    },
    {
      "bottom": 1765,
      "id": 150,
      "left": 2208,
      "right": 2287,
      "text": "Дата",
      "top": 1731
    },
    {
      "bottom": 1799,
      "id": 151,
      "left": 1096,
      "right": 1213,
      "text": "OCHOBH",
      "top": 1780
    },
    {
      "bottom": 1799,
      "id": 152,
      "left": 1288,
      "right": 1387,
      "text": "BCHOM",
      "top": 1780
    },
    {
      "bottom": 1802,
      "id": 153,
      "left": 1457,
      "right": 1574,
      "text": "оджий",
      "top": 1780
    },
    {
      "bottom": 1799,
      "id": 154,
      "left": 1600,
      "right": 1757,
      "text": "балконов",
      "top": 1780
    },
    {
      "bottom": 1808,
      "id": 155,
      "left": 1824,
      "right": 1945,
      "text": "прочих",
      "top": 1780
    },
    {
      "bottom": 1808,
      "id": 156,
      "left": 2130,
      "right": 2363,
      "text": "обследования",
      "top": 1786
    },
    {
      "bottom": 1893,
      "id": 157,
      "left": 2138,
      "right": 2242,
      "text": "чрежд",
      "top": 1865
    },
    {
      "bottom": 1907,
      "id": 158,
      "left": 149,
      "right": 155,
      "text": "1",
      "top": 1880
    },
    {
      "bottom": 1907,
      "id": 159,
      "left": 244,
      "right": 250,
      "text": "|",
      "top": 1880
    },
    {
      "bottom": 1907,
      "id": 160,
      "left": 498,
      "right": 638,
      "text": "корилор",
      "top": 1888
    },
    {
      "bottom": 1907,
      "id": 161,
      "left": 1017,
      "right": 1058,
      "text": "32",
      "top": 1880
    },
    {
      "bottom": 1907,
      "id": 162,
      "left": 1383,
      "right": 1424,
      "text": "32",
      "top": 1880
    },
    {
      "bottom": 1907,
      "id": 163,
      "left": 2024,
      "right": 2083,
      "text": "266",
      "top": 1880
    },
    {
      "bottom": 1893,
      "id": 164,
      "left": 2116,
      "right": 2133,
      "text": "У",
      "top": 1866
    },
    {
      "bottom": 1916,
      "id": 165,
      "left": 537,
      "right": 626,
      "text": "PHOT",
      "top": 1889
    },
    {
      "bottom": 1930,
      "id": 166,
      "left": 2116,
      "right": 2315,
      "text": "28.09.2010",
      "top": 1903
    },
    {
      "bottom": 1943,
      "id": 167,
      "left": 2302,
      "right": 2317,
      "text": "1",
      "top": 1886
    },
    {
      "bottom": 1996,
      "id": 168,
      "left": 2138,
      "right": 2242,
      "text": "чрежд",
      "top": 1968
    },
    {
      "bottom": 2010,
      "id": 169,
      "left": 239,
      "right": 256,
      "text": "2",
      "top": 1983
    },
    {
      "bottom": 2010,
      "id": 170,
      "left": 518,
      "right": 632,
      "text": "борная",
      "top": 1991
    },
    {
      "bottom": 2010,
      "id": 171,
      "left": 1016,
      "right": 1058,
      "text": "1.9",
      "top": 1983
    },
    {
      "bottom": 2010,
      "id": 172,
      "left": 1382,
      "right": 1424,
      "text": "1.9",
      "top": 1983
    },
    {
      "bottom": 2010,
      "id": 173,
      "left": 2024,
      "right": 2083,
      "text": "266",
      "top": 1983
    },
    {
      "bottom": 1996,
      "id": 174,
      "left": 2116,
      "right": 2133,
      "text": "У",
      "top": 1969
    },
    {
      "bottom": 2019,
      "id": 175,
      "left": 497,
      "right": 564,
      "text": "yoo!",
      "top": 1992
    },
    {
      "bottom": 2034,
      "id": 176,
      "left": 2116,
      "right": 2297,
      "text": "28.09.2010",
      "top": 2007
    },
    {
      "bottom": 2034,
      "id": 177,
      "left": 2310,
      "right": 2315,
      "text": "1",
      "top": 2016
    },
    {
      "bottom": 2096,
      "id": 178,
      "left": 242,
      "right": 254,
      "text": ">",
      "top": 2087
    },
    {
      "bottom": 2094,
      "id": 179,
      "left": 537,
      "right": 553,
      "text": "~",
      "top": 2086
    },
    {
      "bottom": 2100,
      "id": 180,
      "left": 2138,
      "right": 2242,
      "text": "чрежд",
      "top": 2072
    },
    {
      "bottom": 2114,
      "id": 181,
      "left": 245,
      "right": 255,
      "text": "3",
      "top": 2097
    },
    {
      "bottom": 2114,
      "id": 182,
      "left": 498,
      "right": 627,
      "text": "кабинет",
      "top": 2095
    },
    {
      "bottom": 2114,
      "id": 183,
      "left": 996,
      "right": 1057,
      "text": "12.5",
      "top": 2087
    },
    {
      "bottom": 2114,
      "id": 184,
      "left": 1179,
      "right": 1241,
      "text": "12.5",
      "top": 2087
    },
    {
      "bottom": 2114,
      "id": 185,
      "left": 2024,
      "right": 2081,
      "text": "265",
      "top": 2087
    },
    {
      "bottom": 2100,
      "id": 186,
      "left": 2116,
      "right": 2133,
      "text": "У",
      "top": 2073
    },
    {
      "bottom": 2137,
      "id": 187,
      "left": 2116,
      "right": 2315,
      "text": "28.09.20101",
      "top": 2110
    },
    {
      "bottom": 2203,
      "id": 188,
      "left": 2138,
      "right": 2242,
      "text": "чрежд",
      "top": 2175
    },
    {
      "bottom": 2217,
      "id": 189,
      "left": 239,
      "right": 257,
      "text": "4",
      "top": 2190
    },
    {
      "bottom": 2217,
      "id": 190,
      "left": 498,
      "right": 635,
      "text": "комната",
      "top": 2198
    },
    {
      "bottom": 2220,
      "id": 191,
      "left": 648,
      "right": 770,
      "text": "отдыха",
      "top": 2198
    },
    {
      "bottom": 2217,
      "id": 192,
      "left": 1012,
      "right": 1058,
      "text": "5.9",
      "top": 2190
    },
    {
      "bottom": 2217,
      "id": 193,
      "left": 1378,
      "right": 1424,
      "text": "5.9",
      "top": 2190
    },
    {
      "bottom": 2217,
      "id": 194,
      "left": 2024,
      "right": 2081,
      "text": "265",
      "top": 2190
    },
    {
      "bottom": 2203,
      "id": 195,
      "left": 2116,
      "right": 2133,
      "text": "у",
      "top": 2176
    },
    {
      "bottom": 2241,
      "id": 196,
      "left": 2116,
      "right": 2315,
      "text": "28.09.20101",
      "top": 2214
    },
    {
      "bottom": 2307,
      "id": 197,
      "left": 88,
      "right": 188,
      "text": "Итого",
      "top": 2280
    },
    {
      "bottom": 2307,
      "id": 198,
      "left": 201,
      "right": 240,
      "text": "по",
      "top": 2288
    },
    {
      "bottom": 2309,
      "id": 199,
      "left": 253,
      "right": 459,
      "text": "помешению",
      "top": 2288
    },
    {
      "bottom": 2307,
      "id": 200,
      "left": 991,
      "right": 1057,
      "text": "23.5",
      "top": 2280
    },
    {
      "bottom": 2307,
      "id": 201,
      "left": 1179,
      "right": 1241,
      "text": "12,5",
      "top": 2280
    },
    {
      "bottom": 2307,
      "id": 202,
      "left": 1361,
      "right": 1425,
      "text": "11.0",
      "top": 2280
    },
    {
      "bottom": 2382,
      "id": 203,
      "left": 108,
      "right": 265,
      "text": "Нежилые",
      "top": 2355
    },
    {
      "bottom": 2384,
      "id": 204,
      "left": 280,
      "right": 471,
      "text": "помещения",
      "top": 2363
    },
    {
      "bottom": 2382,
      "id": 205,
      "left": 487,
      "right": 576,
      "text": "всего",
      "top": 2363
    },
    {
      "bottom": 2382,
      "id": 206,
      "left": 991,
      "right": 1057,
      "text": "23.5",
      "top": 2355
    },
    {
      "bottom": 2382,
      "id": 207,
      "left": 1179,
      "right": 1241,
      "text": "12,5",
      "top": 2355
    },
    {
      "bottom": 2382,
      "id": 208,
      "left": 1361,
      "right": 1425,
      "text": "11.0",
      "top": 2355
    },
    {
      "bottom": 2457,
      "id": 209,
      "left": 147,
      "right": 163,
      "text": "в",
      "top": 2439
    },
    {
      "bottom": 2457,
      "id": 210,
      "left": 181,
      "right": 220,
      "text": "т.ч.",
      "top": 2439
    },
    {
      "bottom": 2466,
      "id": 211,
      "left": 245,
      "right": 533,
      "text": "Учрежденческие",
      "top": 2430
    },
    {
      "bottom": 2457,
      "id": 212,
      "left": 991,
      "right": 1057,
      "text": "23.5",
      "top": 2430
    },
    {
      "bottom": 2457,
      "id": 213,
      "left": 1179,
      "right": 1241,
      "text": "12,5",
      "top": 2430
    },
    {
      "bottom": 2457,
      "id": 214,
      "left": 1361,
      "right": 1425,
      "text": "11.0",
      "top": 2430
    },
    {
      "bottom": 2651,
      "id": 215,
      "left": 79,
      "right": 279,
      "text": "Помешение",
      "top": 2621
    },
    {
      "bottom": 2649,
      "id": 216,
      "left": 293,
      "right": 331,
      "text": "№",
      "top": 2621
    },
    {
      "bottom": 2648,
      "id": 217,
      "left": 346,
      "right": 370,
      "text": "П",
      "top": 2621
    },
    {
      "bottom": 2648,
      "id": 218,
      "left": 386,
      "right": 450,
      "text": "Тин:",
      "top": 2621
    },
    {
      "bottom": 2648,
      "id": 219,
      "left": 478,
      "right": 630,
      "text": "Нежилое",
      "top": 2621
    },
    {
      "bottom": 2718,
      "id": 220,
      "left": 147,
      "right": 353,
      "text": "Свзедениями",
      "top": 2688
    },
    {
      "bottom": 2715,
      "id": 221,
      "left": 368,
      "right": 386,
      "text": "о",
      "top": 2696
    },
    {
      "bottom": 2718,
      "id": 222,
      "left": 399,
      "right": 607,
      "text": "соб.подении",
      "top": 2696
    },
    {
      "bottom": 2724,
      "id": 223,
      "left": 627,
      "right": 817,
      "text": "требований",
      "top": 2688
    },
    {
      "bottom": 2724,
      "id": 224,
      "left": 833,
      "right": 948,
      "text": "пункта",
      "top": 2696
    },
    {
      "bottom": 2715,
      "id": 225,
      "left": 961,
      "right": 979,
      "text": "4",
      "top": 2688
    },
    {
      "bottom": 2715,
      "id": 226,
      "left": 994,
      "right": 1083,
      "text": "части",
      "top": 2697
    },
    {
      "bottom": 2715,
      "id": 227,
      "left": 1103,
      "right": 1135,
      "text": "17",
      "top": 2688
    },
    {
      "bottom": 2716,
      "id": 228,
      "left": 1149,
      "right": 1256,
      "text": "статьи",
      "top": 2696
    },
    {
      "bottom": 2715,
      "id": 229,
      "left": 1271,
      "right": 1302,
      "text": "5]",
      "top": 2688
    },
    {
      "bottom": 2724,
      "id": 230,
      "left": 1323,
      "right": 1673,
      "text": "Градостроительного",
      "top": 2688
    },
    {
      "bottom": 2718,
      "id": 231,
      "left": 1687,
      "right": 1817,
      "text": "кодекса",
      "top": 2696
    },
    {
      "bottom": 2762,
      "id": 232,
      "left": 148,
      "right": 343,
      "text": "Российской",
      "top": 2735
    },
    {
      "bottom": 2771,
      "id": 233,
      "left": 359,
      "right": 545,
      "text": "Федерации",
      "top": 2735
    },
    {
      "bottom": 2762,
      "id": 234,
      "left": 562,
      "right": 632,
      "text": "ГБУ",
      "top": 2735
    },
    {
      "bottom": 2771,
      "id": 235,
      "left": 648,
      "right": 851,
      "text": "МосгорБТИ",
      "top": 2735
    },
    {
      "bottom": 2762,
      "id": 236,
      "left": 866,
      "right": 902,
      "text": "ve",
      "top": 2744
    },
    {
      "bottom": 2771,
      "id": 237,
      "left": 915,
      "right": 1115,
      "text": "располагает",
      "top": 2743
    },
    {
      "bottom": 2768,
      "id": 238,
      "left": 1133,
      "right": 1253,
      "text": "(ком.б)",
      "top": 2735
    },
    {
      "bottom": 2873,
      "id": 239,
      "left": 1536,
      "right": 1690,
      "text": "Площаль",
      "top": 2843
    },
    {
      "bottom": 2872,
      "id": 240,
      "left": 1703,
      "right": 1898,
      "text": "помещений",
      "top": 2843
    },
    {
      "bottom": 2920,
      "id": 241,
      "left": 988,
      "right": 1142,
      "text": "Плошаль",
      "top": 2890
    },
    {
      "bottom": 2919,
      "id": 242,
      "left": 1154,
      "right": 1258,
      "text": "общая.",
      "top": 2898
    },
    {
      "bottom": 2917,
      "id": 243,
      "left": 1284,
      "right": 1353,
      "text": "кв.м",
      "top": 2899
    },
    {
      "bottom": 2917,
      "id": 244,
      "left": 1562,
      "right": 1873,
      "text": "вспомогательного",
      "top": 2898
    },
    {
      "bottom": 2944,
      "id": 245,
      "left": 2144,
      "right": 2354,
      "text": "Примечание",
      "top": 2908
    },
    {
      "bottom": 2935,
      "id": 246,
      "left": 2278,
      "right": 2284,
      "text": "с",
      "top": 2925
    },
    {
      "bottom": 2964,
      "id": 247,
      "left": 1459,
      "right": 1709,
      "text": "использования",
      "top": 2945
    },
    {
      "bottom": 2968,
      "id": 248,
      "left": 1725,
      "right": 1753,
      "text": "(с",
      "top": 2938
    },
    {
      "bottom": 2968,
      "id": 249,
      "left": 1767,
      "right": 1871,
      "text": "коэф.).",
      "top": 2940
    },
    {
      "bottom": 2964,
      "id": 250,
      "left": 1894,
      "right": 1974,
      "text": "кв.м",
      "top": 2946
    },
    {
      "bottom": 2961,
      "id": 251,
      "left": 2023,
      "right": 2071,
      "text": "Вы",
      "top": 2934
    },
    {
      "bottom": 2985,
      "id": 252,
      "left": 563,
      "right": 839,
      "text": "Характеристики",
      "top": 2958
    },
    {
      "bottom": 2988,
      "id": 253,
      "left": 110,
      "right": 117,
      "text": "r",
      "top": 2981
    },
    {
      "bottom": 2985,
      "id": 254,
      "left": 655,
      "right": 664,
      "text": "к",
      "top": 2972
    },
    {
      "bottom": 2985,
      "id": 255,
      "left": 810,
      "right": 819,
      "text": "^",
      "top": 2974
    },
    {
      "bottom": 3009,
      "id": 256,
      "left": 118,
      "right": 196,
      "text": "аж",
      "top": 2981
    },
    {
      "bottom": 3008,
      "id": 257,
      "left": 259,
      "right": 328,
      "text": "№№",
      "top": 2981
    },
    {
      "bottom": 3008,
      "id": 258,
      "left": 342,
      "right": 457,
      "text": "комнат",
      "top": 2989
    },
    {
      "bottom": 2994,
      "id": 259,
      "left": 592,
      "right": 709,
      "text": "раке]",
      "top": 2967
    },
    {
      "bottom": 3008,
      "id": 260,
      "left": 2013,
      "right": 2083,
      "text": "сота",
      "top": 2989
    },
    {
      "bottom": 3031,
      "id": 261,
      "left": 521,
      "right": 636,
      "text": "комнат",
      "top": 3012
    },
    {
      "bottom": 3031,
      "id": 262,
      "left": 655,
      "right": 671,
      "text": "и",
      "top": 3013
    },
    {
      "bottom": 3033,
      "id": 263,
      "left": 687,
      "right": 881,
      "text": "помещений",
      "top": 3012
    },
    {
      "bottom": 3028,
      "id": 264,
      "left": 1153,
      "right": 1169,
      "text": "в",
      "top": 3010
    },
    {
      "bottom": 3028,
      "id": 265,
      "left": 1187,
      "right": 1241,
      "text": "том",
      "top": 3009
    },
    {
      "bottom": 3028,
      "id": 266,
      "left": 1257,
      "right": 1351,
      "text": "числе",
      "top": 3009
    },
    {
      "bottom": 3028,
      "id": 267,
      "left": 1618,
      "right": 1634,
      "text": "в",
      "top": 3010
    },
    {
      "bottom": 3028,
      "id": 268,
      "left": 1652,
      "right": 1706,
      "text": "том",
      "top": 3009
    },
    {
      "bottom": 3028,
      "id": 269,
      "left": 1723,
      "right": 1816,
      "text": "числе",
      "top": 3009
    },
    {
      "bottom": 3055,
      "id": 270,
      "left": 2028,
      "right": 2043,
      "text": "с",
      "top": 3036
    },
    {
      "bottom": 3055,
      "id": 271,
      "left": 2048,
      "right": 2067,
      "text": "M",
      "top": 3037
    },
    {
      "bottom": 3085,
      "id": 272,
      "left": 946,
      "right": 1042,
      "text": "Всего",
      "top": 3058
    },
    {
      "bottom": 3086,
      "id": 273,
      "left": 2208,
      "right": 2287,
      "text": "Дата",
      "top": 3052
    },
    {
      "bottom": 3119,
      "id": 274,
      "left": 1096,
      "right": 1213,
      "text": "OCHOBH",
      "top": 3100
    },
    {
      "bottom": 3119,
      "id": 275,
      "left": 1288,
      "right": 1387,
      "text": "BCHOM",
      "top": 3100
    },
    {
      "bottom": 3122,
      "id": 276,
      "left": 1457,
      "right": 1574,
      "text": "оджий",
      "top": 3100
    },
    {
      "bottom": 3119,
      "id": 277,
      "left": 1600,
      "right": 1757,
      "text": "балконов",
      "top": 3100
    },
    {
      "bottom": 3128,
      "id": 278,
      "left": 1824,
      "right": 1945,
      "text": "прочих",
      "top": 3100
    },
    {
      "bottom": 3128,
      "id": 279,
      "left": 2130,
      "right": 2363,
      "text": "обследования",
      "top": 3106
    },
    {
      "bottom": 3213,
      "id": 280,
      "left": 2138,
      "right": 2242,
      "text": "чрежд",
      "top": 3185
    },
    {
      "bottom": 3227,
      "id": 281,
      "left": 149,
      "right": 155,
      "text": "1",
      "top": 3200
    },
    {
      "bottom": 3227,
      "id": 282,
      "left": 244,
      "right": 250,
      "text": "|",
      "top": 3200
    },
    {
      "bottom": 3227,
      "id": 283,
      "left": 498,
      "right": 627,
      "text": "кабинет",
      "top": 3208
    },
    {
      "bottom": 3227,
      "id": 284,
      "left": 996,
      "right": 1058,
      "text": "16.8",
      "top": 3200
    },
    {
      "bottom": 3227,
      "id": 285,
      "left": 1179,
      "right": 1242,
      "text": "16.8",
      "top": 3200
    },
    {
      "bottom": 3227,
      "id": 286,
      "left": 2024,
      "right": 2081,
      "text": "265",
      "top": 3200
    },
    {
      "bottom": 3213,
      "id": 287,
      "left": 2116,
      "right": 2133,
      "text": "5",
      "top": 3186
    },
    {
      "bottom": 3251,
      "id": 288,
      "left": 2116,
      "right": 2315,
      "text": "28.09.20101",
      "top": 3224
    }
  ],
  "height": 3505,
  "width": 2480
}
