{
  "name": "CompositFile",
  "fields": [
    {
      "fieldName": "status",
      "fieldType": "ProcessingStatus",
      "fieldValues": "CREATED,PROCESSING,PARSED"
    }
  ],
  "relationships": [
    {
      "relationshipType": "one-to-one",
      "otherEntityName": "binaryFile",
      "otherEntityRelationshipName": "composit",
      "relationshipName": "binaryFile",
      "otherEntityField": "id",
      "ownerSide": true
    },
    {
      "relationshipType": "one-to-many",
      "otherEntityName": "atomicFile",
      "otherEntityRelationshipName": "parent",
      "relationshipName": "atomics"
    },
    {
      "relationshipType": "one-to-one",
      "otherEntityName": "fileCategoryFieldValue",
      "otherEntityRelationshipName": "compositFile",
      "relationshipName": "fileCategoryFieldValue",
      "ownerSide": false
    },
    {
      "relationshipType": "many-to-one",
      "otherEntityName": "fileCategory",
      "otherEntityRelationshipName": "composits",
      "relationshipName": "fileCategory",
      "otherEntityField": "id"
    }
  ],
  "changelogDate": "20201030150959",
  "entityTableName": "composit_file",
  "dto": "no",
  "pagination": "no",
  "service": "no",
  "jpaMetamodelFiltering": false,
  "fluentMethods": true,
  "readOnly": false,
  "embedded": false,
  "clientRootFolder": "",
  "applications": "*",
  "microserviceName": "DassuCore"
}
